PA4-ds4ling
…
```r
library(tidyverse)
fricatives_tidy <- pivot_longer(fricatives,c(`s_cog`:`sh_skewness`), names_to = "category", values_to = "values") %>% # turn the four categories into one column
  separate(category, into = c("phoneme", "kind"), sep = "_") %>% # separate phoneme and kind
  pivot_wider(names_from = kind, values_from = values) # put cog and skewness back to columns
fricatives_tidy # show the tidy version
```

```
## # A tibble: 40 x 4
##      obs phoneme   cog skewness
##    <int> <chr>   <dbl>    <dbl>
##  1     1 s       3285.  -1.22  
##  2     1 sh      2409.  -0.248 
##  3     2 s       4664.  -1.19  
##  4     2 sh      2823.  -0.0165
##  5     3 s       4680.  -1.07  
##  6     3 sh      2898.   0.118 
##  7     4 s       4874.  -1.06  
##  8     4 sh      3617.   0.198 
##  9     5 s       4879.  -1.03  
## 10     5 sh      3668.   0.212 
## # … with 30 more rows
```
…
